…
``` r
# Print data frame
raw_ebola_data
```

``` output
# A tibble: 15,003 × 9
      V1 `case id` age     gender status `date onset` `date sample` lab   region
   <int>     <int> <chr>   <chr>  <chr>  <chr>        <chr>         <lgl> <chr> 
 1     1     14905 90      1      "conf… 03/15/2015   06/04/2015    NA    valdr…
 2     2     13043 twenty… 2      ""     Sep /11/13   03/01/2014    NA    valdr…
 3     3     14364 54      f       <NA>  09/02/2014   03/03/2015    NA    valdr…
 4     4     14675 ninety  <NA>   ""     10/19/2014   31/ 12 /14    NA    valdr…
 5     5     12648 74      F      ""     08/06/2014   10/10/2016    NA    valdr…
 6     5     12648 74      F      ""     08/06/2014   10/10/2016    NA    valdr…
 7     6     14274 sevent… female ""     Apr /05/15   01/23/2016    NA    valdr…
 8     7     14132 sixteen male   "conf… Dec /29/Y    05/10/2015    NA    valdr…
 9     8     14715 44      f      "conf… Apr /06/Y    04/24/2016    NA    valdr…
10     9     13435 26      1      ""     09/07/2014   20/ 09 /14    NA    valdr…
# ℹ 14,993 more rows
```
…
In addition to the regularities, raw data can contain missing values that may be encoded by different strings, including the empty. To ensure robust analysis, it is a good practice to replace all missing values by `NA` in the entire dataset. Below is a code snippet demonstrating how you can achieve this in `{cleanepi}`:


``` r
sim_ebola_data <- cleanepi::replace_missing_values(
  data = sim_ebola_data,
  na_strings = ""
)

sim_ebola_data
```

``` output
# A tibble: 15,000 × 8
     v_1 case_id age         gender status    date_onset date_sample row_id
   <int>   <int> <chr>       <chr>  <chr>     <chr>      <chr>        <int>
 1     1   14905 90          1      confirmed 03/15/2015 06/04/2015       1
 2     2   13043 twenty-five 2      <NA>      Sep /11/13 03/01/2014       2
 3     3   14364 54          f      <NA>      09/02/2014 03/03/2015       3
 4     4   14675 ninety      <NA>   <NA>      10/19/2014 31/ 12 /14       4
 5     5   12648 74          F      <NA>      08/06/2014 10/10/2016       5
 6     6   14274 seventy-six female <NA>      Apr /05/15 01/23/2016       7
 7     7   14132 sixteen     male   confirmed Dec /29/Y  05/10/2015       8
 8     8   14715 44          f      confirmed Apr /06/Y  04/24/2016       9
 9     9   13435 26          1      <NA>      09/07/2014 20/ 09 /14      10
10    10   14816 thirty      f      <NA>      06/29/2015 06/02/2015      11
# ℹ 14,990 more rows
```
…
``` r
sim_ebola_data <- cleanepi::standardize_dates(
  sim_ebola_data,
  target_columns = c(
    "date_onset",
    "date_sample"
  )
)

sim_ebola_data
```

``` output
# A tibble: 15,000 × 8
     v_1 case_id age         gender status    date_onset date_sample row_id
   <int> <chr>   <chr>       <chr>  <chr>     <date>     <date>       <int>
 1     1 14905   90          1      confirmed 2015-03-15 2015-04-06       1
 2     2 13043   twenty-five 2      <NA>      2013-09-11 2014-01-03       2
 3     3 14364   54          f      <NA>      2014-02-09 2015-03-03       3
 4     4 14675   ninety      <NA>   <NA>      2014-10-19 2014-12-31       4
 5     5 12648   74          F      <NA>      2014-06-08 2016-10-10       5
 6     6 14274   seventy-six female <NA>      2015-04-05 2016-01-23       7
 7     7 14132   sixteen     male   confirmed NA         2015-10-05       8
 8     8 14715   44          f      confirmed NA         2016-04-24       9
 9     9 13435   26          1      <NA>      2014-07-09 2014-09-20      10
10    10 14816   thirty      f      <NA>      2015-06-29 2015-02-06      11
# ℹ 14,990 more rows
```
…
### Converting to numeric values

In the raw dataset, some column can come with mixture of character and numerical values, and you want to covert the character values explicitly into numeric. For example, in our simulated data set, in the age column some entries are written in words. 
In `{cleanepi}` the function `convert_to_numeric()` does such conversion as illustrated in the below code chunk.

``` r
sim_ebola_data <- cleanepi::convert_to_numeric(sim_ebola_data,
  target_columns = "age"
)

sim_ebola_data
```

``` output
# A tibble: 15,000 × 8
     v_1 case_id   age gender status    date_onset date_sample row_id
   <int> <chr>   <dbl> <chr>  <chr>     <date>     <date>       <int>
 1     1 14905      90 1      confirmed 2015-03-15 2015-04-06       1
 2     2 13043      25 2      <NA>      2013-09-11 2014-01-03       2
 3     3 14364      54 f      <NA>      2014-02-09 2015-03-03       3
 4     4 14675      90 <NA>   <NA>      2014-10-19 2014-12-31       4
 5     5 12648      74 F      <NA>      2014-06-08 2016-10-10       5
 6     6 14274      76 female <NA>      2015-04-05 2016-01-23       7
 7     7 14132      16 male   confirmed NA         2015-10-05       8
 8     8 14715      44 f      confirmed NA         2016-04-24       9
 9     9 13435      26 1      <NA>      2014-07-09 2014-09-20      10
10    10 14816      30 f      <NA>      2015-06-29 2015-02-06      11
# ℹ 14,990 more rows
```
…
Now, we can use this dictionary to standardize values of the the “gender” column according to predefined categories. Below is an example code chunk demonstrating how to utilize this functionality:


``` r
sim_ebola_data <- cleanepi::clean_using_dictionary(
  sim_ebola_data,
  dictionary = test_dict
)

sim_ebola_data
```

``` output
# A tibble: 15,000 × 8
     v_1 case_id   age gender status    date_onset date_sample row_id
   <int> <chr>   <dbl> <chr>  <chr>     <date>     <date>       <int>
 1     1 14905      90 male   confirmed 2015-03-15 2015-04-06       1
 2     2 13043      25 female <NA>      2013-09-11 2014-01-03       2
 3     3 14364      54 female <NA>      2014-02-09 2015-03-03       3
 4     4 14675      90 <NA>   <NA>      2014-10-19 2014-12-31       4
 5     5 12648      74 female <NA>      2014-06-08 2016-10-10       5
 6     6 14274      76 female <NA>      2015-04-05 2016-01-23       7
 7     7 14132      16 male   confirmed NA         2015-10-05       8
 8     8 14715      44 female confirmed NA         2016-04-24       9
 9     9 13435      26 male   <NA>      2014-07-09 2014-09-20      10
10    10 14816      30 female <NA>      2015-06-29 2015-02-06      11
# ℹ 14,990 more rows
```
…
sim_ebola_data %>%
  dplyr::select(case_id, date_sample, years_since_collection, remainder_months)
```

``` output
# A tibble: 15,000 × 4
   case_id date_sample years_since_collection remainder_months
   <chr>   <date>                       <dbl>            <dbl>
 1 14905   2015-04-06                       9                5
 2 13043   2014-01-03                      10                8
 3 14364   2015-03-03                       9                6
 4 14675   2014-12-31                       9                8
 5 12648   2016-10-10                       7               11
 6 14274   2016-01-23                       8                8
 7 14132   2015-10-05                       8               11
 8 14715   2016-04-24                       8                5
 9 13435   2014-09-20                      10                0
10 14816   2015-02-06                       9                7
# ℹ 14,990 more rows
```
…
linelist_data <- linelist::make_linelist(
  x = cleaned_data,
  id = "case_id",
  date_onset = "date_onset",
  gender = "gender"
)

linelist_data
```

``` output

// linelist object
# A tibble: 15,000 × 8
     v_1 case_id   age gender status    date_onset date_sample row_id
   <int> <chr>   <dbl> <chr>  <chr>     <date>     <date>       <int>
 1     1 14905      90 male   confirmed 2015-03-15 2015-04-06       1
 2     2 13043      25 female <NA>      2013-09-11 2014-01-03       2
 3     3 14364      54 female <NA>      2014-02-09 2015-03-03       3
 4     4 14675      90 <NA>   <NA>      2014-10-19 2014-12-31       4
 5     5 12648      74 female <NA>      2014-06-08 2016-10-10       5
 6     6 14274      76 female <NA>      2015-04-05 2016-01-23       7
 7     7 14132      16 male   confirmed NA         2015-10-05       8
 8     8 14715      44 female confirmed NA         2016-04-24       9
 9     9 13435      26 male   <NA>      2014-07-09 2014-09-20      10
10    10 14816      30 female <NA>      2015-06-29 2015-02-06      11
# ℹ 14,990 more rows
…
::::::::::::::::::::::::::::::::::::::::::::::::

A  `linelist` object resembles a data frame but offers richer features 
and functionalities. Packages that are linelist-aware can leverage these 
features. For example, you can extract a data frame of only the tagged columns 
using the `linelist::tags_df()` function, as shown below:


``` r
linelist::tags_df(linelist_data)
```

``` output
# A tibble: 15,000 × 3
   id    date_onset gender
   <chr> <date>     <chr> 
 1 14905 2015-03-15 male  
 2 13043 2013-09-11 female
 3 14364 2014-02-09 female
 4 14675 2014-10-19 <NA>  
 5 12648 2014-06-08 female
 6 14274 2015-04-05 female
 7 14132 NA         male  
 8 14715 NA         female
 9 13435 2014-07-09 male  
10 14816 2015-06-29 female
# ℹ 14,990 more rows
```
…
