Read and clean case data, and make linelist for outbreak analytics with R: Aggregate and visualize
…
WARNING

Warning: Number of cases exceeds maximum outbreak size.
Returning data early with 1546 cases and 3059 total contacts (including cases).

R

# Display the simulated dataset
sim_data

OUTPUT

# A tibble: 1,546 × 12
      id case_name       case_type sex     age date_onset date_admission outcome
   <int> <chr>           <chr>     <chr> <int> <date>     <date>         <chr>
 1     1 Kaylin Alberts  probable  f        70 2023-01-01 2023-01-06     recove…
 2     3 Guirnalda Azuc… probable  f        25 2023-01-11 2023-01-18     died
 3     6 Kevin Lee       suspected m        80 2023-01-18 NA             recove…
 4     8 Ashraf al-Raha… probable  m         8 2023-01-23 2023-02-01     recove…
 5    11 Jacob Miller    probable  m        69 2023-01-30 NA             recove…
 6    14 Rocky Bustillos suspected m        40 2023-01-24 2023-01-29     recove…
 7    15 Jim Soriano     confirmed m        37 2023-01-31 NA             recove…
 8    16 Abdul Wadood e… suspected m        67 2023-01-30 NA             recove…
 9    20 Kristy Neish    probable  f        57 2023-01-27 NA             recove…
10    21 Azeema al-Shab… confirmed f        70 2023-02-09 2023-02-13     died
# ℹ 1,536 more rows
# ℹ 4 more variables: date_outcome <date>, date_first_contact <date>,
#   date_last_contact <date>, ct_value <dbl>
…
