…
# preview data
ebola_confirmed
```



``` output
# A tibble: 120 × 4
    year month   day confirm
   <int> <int> <int>   <int>
 1  2014     5    18       1
 2  2014     5    20       2
 3  2014     5    21       4
 4  2014     5    22       6
 5  2014     5    23       1
 6  2014     5    24       2
 7  2014     5    26      10
 8  2014     5    27       8
 9  2014     5    28       2
10  2014     5    29      12
# ℹ 110 more rows
```
…
``` r
dplyr::left_join(author, family_author, keep = TRUE) %>%
  dplyr::collect()
```

``` output
Joining with `by = join_by(author_id)`
```

``` output
# A tibble: 5,029 × 4
   author_id.x name         author_id.y rfam_acc
         <int> <chr>              <int> <chr>   
 1           1 Ames T                 1 RF01831 
 2           2 Argasinska J           2 RF02554 
 3           2 Argasinska J           2 RF02555 
 4           2 Argasinska J           2 RF02722 
 5           2 Argasinska J           2 RF02720 
 6           2 Argasinska J           2 RF02719 
 7           2 Argasinska J           2 RF02721 
 8           2 Argasinska J           2 RF02670 
 9           2 Argasinska J           2 RF02718 
10           2 Argasinska J           2 RF02668 
# ℹ 5,019 more rows
```
…
``` r
# get the names and IDs of the organisation units
org_units <- readepi::get_organisation_units(login = dhis2_login)
tibble::as_tibble(org_units)
```

``` output
# A tibble: 872 × 10
   National_name National_id Regional_name Regional_id District_name District_id
   <chr>         <chr>       <chr>         <chr>       <chr>         <chr>      
 1 Gambia        jvQPTsCLwPh Central Rive… gsMpbz5DQsM "Upper fulla… srjR5LWAoBD
 2 Gambia        jvQPTsCLwPh Western Regi… D18zNdCbRfO "Foni Jarrol… kAxFyJFfYV8
 3 Gambia        jvQPTsCLwPh Upper River … SHRxQEqOPJa "Sandu"       iZQOFwckdXL
 4 Gambia        jvQPTsCLwPh Central Rive… gsMpbz5DQsM "Upper fulla… srjR5LWAoBD
 5 Gambia        jvQPTsCLwPh Upper River … SHRxQEqOPJa "Basse (Full… Ug7sj97icMt
 6 Gambia        jvQPTsCLwPh Upper River … SHRxQEqOPJa "Basse (Full… Ug7sj97icMt
 7 Gambia        jvQPTsCLwPh Central Rive… gsMpbz5DQsM "Sami"        ZZNUH1LhS7k
 8 Gambia        jvQPTsCLwPh Western Regi… D18zNdCbRfO "Foni Jarrol… kAxFyJFfYV8
 9 Gambia        jvQPTsCLwPh Central Rive… gsMpbz5DQsM "Niamina Dan… T55lst07vTj
10 Gambia        jvQPTsCLwPh Upper River … SHRxQEqOPJa "Tumana"      xGYsUdiJb4L
# ℹ 862 more rows
# ℹ 4 more variables: `Operational Zone_name` <chr>,
#   `Operational Zone_id` <chr>, `Town/Village_name` <chr>,
#   `Town/Village_id` <chr>
```
After retrieving organization units and program names from the DHIS2 database, we can import data using either names or coded IDs, as demonstrated in the code chunk below


``` r
data <- readepi::read_dhis2(
  login = dhis2_login,
  org_unit = "Keneba",
  program = "Child Registration & Treatment "
)

tibble::as_tibble(data)
```

``` output
# A tibble: 1,116 × 69
   event   tracked_entity org_unit ` SMC-CR Scan QR Code` SMC-CR Did the child…¹
   <chr>   <chr>          <chr>    <chr>                  <chr>                 
 1 bgSDQb… yv7MOkGD23q    Keneba   SMC23-0510989          1                     
 2 y4MKmP… nibnZ8h0Nse    Keneba   SMC2021-018089         1                     
 3 yK7VG3… nibnZ8h0Nse    Keneba   SMC2021-018089         1                     
 4 EmNflz… nibnZ8h0Nse    Keneba   SMC2021-018089         1                     
 5 UF96ms… nibnZ8h0Nse    Keneba   SMC2021-018089         1                     
 6 guQTwc… FomREQ2it4n    Keneba   SMC23-0510012          1                     
 7 jbkRkL… FomREQ2it4n    Keneba   SMC23-0510012          1                     
 8 AEeype… FomREQ2it4n    Keneba   SMC23-0510012          1                     
 9 R30SPs… E5oAWGcdFT4    Keneba   koika-smc-22897        1                     
10 nr03Qy… E5oAWGcdFT4    Keneba   koika-smc-22897        1                     
# ℹ 1,106 more rows
# ℹ abbreviated name: ¹​`SMC-CR Did the child  previously received a card?`
# ℹ 64 more variables: `SMC-CR Child First Name1` <chr>,
#   `SMC-CR Child Last Name` <chr>, `SMC-CR Date of Birth` <chr>,
#   `SMC-CR Select Age Category  ` <chr>, `SMC-CR Child gender1` <chr>,
#   `SMC-CR Mother/Person responsible full name` <chr>,
#   `SMC-CR Mother/Person responsible phone number1` <chr>, …
```

``` r
# import data from DHIS2 using names
# import data from DHIS2 using IDs
data <- readepi::read_dhis2(
  login = dhis2_login,
  org_unit = "GcLhRNAFppR",
  program = "E5IUQuHg3Mg"
)

tibble::as_tibble(data)
```

``` output
# A tibble: 1,116 × 69
   event   tracked_entity org_unit ` SMC-CR Scan QR Code` SMC-CR Did the child…¹
   <chr>   <chr>          <chr>    <chr>                  <chr>                 
 1 bgSDQb… yv7MOkGD23q    Keneba   SMC23-0510989          1                     
 2 y4MKmP… nibnZ8h0Nse    Keneba   SMC2021-018089         1                     
 3 yK7VG3… nibnZ8h0Nse    Keneba   SMC2021-018089         1                     
 4 EmNflz… nibnZ8h0Nse    Keneba   SMC2021-018089         1                     
 5 UF96ms… nibnZ8h0Nse    Keneba   SMC2021-018089         1                     
 6 guQTwc… FomREQ2it4n    Keneba   SMC23-0510012          1                     
 7 jbkRkL… FomREQ2it4n    Keneba   SMC23-0510012          1                     
 8 AEeype… FomREQ2it4n    Keneba   SMC23-0510012          1                     
 9 R30SPs… E5oAWGcdFT4    Keneba   koika-smc-22897        1                     
10 nr03Qy… E5oAWGcdFT4    Keneba   koika-smc-22897        1                     
# ℹ 1,106 more rows
# ℹ abbreviated name: ¹​`SMC-CR Did the child  previously received a card?`
# ℹ 64 more variables: `SMC-CR Child First Name1` <chr>,
#   `SMC-CR Child Last Name` <chr>, `SMC-CR Date of Birth` <chr>,
#   `SMC-CR Select Age Category  ` <chr>, `SMC-CR Child gender1` <chr>,
#   `SMC-CR Mother/Person responsible full name` <chr>,
#   `SMC-CR Mother/Person responsible phone number1` <chr>, …
```
…
``` r
# get the list of organisation units that run the program "E5IUQuHg3Mg"
target_org_units <- readepi::get_program_org_units(
  login = dhis2_login,
  program = "E5IUQuHg3Mg",
  org_units = org_units
)

tibble::as_tibble(target_org_units)
```

``` output
# A tibble: 26 × 3
   org_unit_ids levels            org_unit_names
   <chr>        <chr>             <chr>         
 1 UrLrbEiWk3J  Town/Village_name Sare Sibo     
 2 wlVsFVeHSTx  Town/Village_name Jawo Kunda    
 3 kp0ZYUEqJE8  Town/Village_name Chewal        
 4 Wr3htgGxhBv  Town/Village_name Madinayel     
 5 psyHoqeN2Tw  Town/Village_name Bolibanna     
 6 MGBYonFM4y3  Town/Village_name Sare Mala     
 7 GcLhRNAFppR  Town/Village_name Keneba        
 8 y1Z3KuvQyhI  Town/Village_name Brikama       
 9 W3vH9yBUSei  Town/Village_name Gidda         
10 ISbNWYieHY8  Town/Village_name Song Kunda    
# ℹ 16 more rows
```
…
``` r
# get the names and IDs of the organisation units
demo_units <- readepi::get_organisation_units(login = demo_login)
tibble::as_tibble(demo_units)
```

``` output
# A tibble: 1,166 × 8
   National_name National_id District_name District_id Chiefdom_name Chiefdom_id
   <chr>         <chr>       <chr>         <chr>       <chr>         <chr>      
 1 Sierra Leone  ImspTQPwCqd Western Area  at6UHUQatSo Rural Wester… qtr8GGlm4gg
 2 Sierra Leone  ImspTQPwCqd Western Area  at6UHUQatSo Rural Wester… qtr8GGlm4gg
 3 Sierra Leone  ImspTQPwCqd Bo            O6uvpzGd5pu Kakua         U6Kr7Gtpidn
 4 Sierra Leone  ImspTQPwCqd Kambia        PMa2VCrupOd Magbema       QywkxFudXrC
 5 Sierra Leone  ImspTQPwCqd Tonkolili     eIQbndfxQMb Yoni          NNE0YMCDZkO
 6 Sierra Leone  ImspTQPwCqd Port Loko     TEQlaapDQoK Kaffu Bullom  vn9KJsLyP5f
 7 Sierra Leone  ImspTQPwCqd Koinadugu     qhqAxPSTUXp Nieni         J4GiUImJZoE
 8 Sierra Leone  ImspTQPwCqd Western Area  at6UHUQatSo Freetown      C9uduqDZr9d
 9 Sierra Leone  ImspTQPwCqd Western Area  at6UHUQatSo Freetown      C9uduqDZr9d
10 Sierra Leone  ImspTQPwCqd Kono          Vth0fbpFcsO Gbense        TQkG0sX9nca
# ℹ 1,156 more rows
# ℹ 2 more variables: Facility_name <chr>, Facility_id <chr>
```
…
A key parameter is the disease name. To ensure correct syntax, you can retrieve the list of available disease names using the `sormas_get_diseases()` function.


``` r
# get the list of all disease names
disease_names <- readepi::sormas_get_diseases(
  login = sormas_login
)

tibble::as_tibble(disease_names)
```

``` output
# A tibble: 67 × 2
   disease            active
   <chr>              <chr> 
 1 AFP                TRUE  
 2 CHOLERA            TRUE  
 3 CONGENITAL_RUBELLA TRUE  
 4 DENGUE             TRUE  
 5 EVD                TRUE  
 6 GUINEA_WORM        TRUE  
 7 LASSA              TRUE  
 8 MEASLES            TRUE  
 9 MONKEYPOX          TRUE  
10 NEW_INFLUENZA      TRUE  
# ℹ 57 more rows
```
…
# List the names of all disease
demo_diseases <- readepi::sormas_get_diseases(login = sormas_demo)
tibble::as_tibble(demo_diseases)
```

``` output
# A tibble: 67 × 2
   disease            active
   <chr>              <chr> 
 1 AFP                TRUE  
 2 CHOLERA            TRUE  
 3 CONGENITAL_RUBELLA TRUE  
 4 DENGUE             TRUE  
 5 EVD                TRUE  
 6 GUINEA_WORM        TRUE  
 7 LASSA              TRUE  
 8 MEASLES            TRUE  
 9 MONKEYPOX          TRUE  
10 NEW_INFLUENZA      TRUE  
# ℹ 57 more rows
```
…
