…
``` r
# read data
# e.g., if the path to our file is "data/raw-data/ebola_cases_2.csv" then:
ebola_confirmed <- rio::import(
  here::here("data", "raw-data", "ebola_cases_2.csv")
) %>%
  dplyr::as_tibble() # for a simple data frame output

# preview data
ebola_confirmed
```


``` output
# A tibble: 120 × 4
    year month   day confirm
   <int> <int> <int>   <int>
 1  2014     5    18       1
 2  2014     5    20       2
 3  2014     5    21       4
 4  2014     5    22       6
 5  2014     5    23       1
 6  2014     5    24       2
 7  2014     5    26      10
 8  2014     5    27       8
 9  2014     5    28       2
10  2014     5    29      12
# ℹ 110 more rows
```
…
``` r
# get the names and IDs of the organisation units
org_units <- readepi::get_organisation_units(login = dhis2_login)

# print tables
tibble::as_tibble(org_units)
```

``` output
# A tibble: 1,166 × 8
   National_name National_id District_name District_id Chiefdom_name Chiefdom_id
   <chr>         <chr>       <chr>         <chr>       <chr>         <chr>      
 1 Sierra Leone  ImspTQPwCqd Western Area  at6UHUQatSo Rural Wester… qtr8GGlm4gg
 2 Sierra Leone  ImspTQPwCqd Western Area  at6UHUQatSo Rural Wester… qtr8GGlm4gg
 3 Sierra Leone  ImspTQPwCqd Bo            O6uvpzGd5pu Kakua         U6Kr7Gtpidn
 4 Sierra Leone  ImspTQPwCqd Kambia        PMa2VCrupOd Magbema       QywkxFudXrC
 5 Sierra Leone  ImspTQPwCqd Tonkolili     eIQbndfxQMb Yoni          NNE0YMCDZkO
 6 Sierra Leone  ImspTQPwCqd Port Loko     TEQlaapDQoK Kaffu Bullom  vn9KJsLyP5f
 7 Sierra Leone  ImspTQPwCqd Koinadugu     qhqAxPSTUXp Nieni         J4GiUImJZoE
 8 Sierra Leone  ImspTQPwCqd Western Area  at6UHUQatSo Freetown      C9uduqDZr9d
 9 Sierra Leone  ImspTQPwCqd Western Area  at6UHUQatSo Freetown      C9uduqDZr9d
10 Sierra Leone  ImspTQPwCqd Kono          Vth0fbpFcsO Gbense        TQkG0sX9nca
# ℹ 1,156 more rows
# ℹ 2 more variables: Facility_name <chr>, Facility_id <chr>
```
…
``` r
# import data from DHIS2 using names
data_name <- readepi::read_dhis2(
  login = dhis2_login,
  org_unit = "Bucksal Clinic",
  program = "Child Programme"
)

tibble::as_tibble(data_name)
```

``` output
# A tibble: 30 × 26
   event      tracked_entity org_unit Gender `First name` `Last name` enrollment
   <chr>      <chr>          <chr>    <chr>  <chr>        <chr>       <chr>     
 1 RrWEjrd84… yzhEctxhPiL    Bucksal… Female Karen        Alvarez     WKgHJZ3Ue…
 2 JgPqmTcG0… G3hZ9gN7UYD    Bucksal… Female Ruby         Warren      Rth5aVYua…
 3 Sz2U8t3YA… G3hZ9gN7UYD    Bucksal… Female Ruby         Warren      Rth5aVYua…
 4 VEvcoYpWF… RyPuD70zgE9    Bucksal… Male   Earl         Mason       COU4sScB6…
 5 BNZA0qyfC… KfXae2GB6Fb    Bucksal… Male   Mark         Jacobs      x4vAlqBJl…
 6 wGMKQ3SBb… KfXae2GB6Fb    Bucksal… Male   Mark         Jacobs      x4vAlqBJl…
 7 FoCWOlstb… aXaALEYwQNV    Bucksal… Female Lillian      Mccoy       VkZrYFMCK…
 8 HFQQUGE9O… aXaALEYwQNV    Bucksal… Female Lillian      Mccoy       VkZrYFMCK…
 9 pVmIV0EyY… rdo8mO4Jifk    Bucksal… Female Denise       Henderson   iwYMBJgiQ…
10 Dee74ydRn… rdo8mO4Jifk    Bucksal… Female Denise       Henderson   iwYMBJgiQ…
# ℹ 20 more rows
# ℹ 19 more variables: program <chr>, program_stage <chr>, event_date <chr>,
#   `MCH Infant Feeding` <chr>, `MCH OPV dose` <chr>, `MCH BCG dose` <chr>,
#   `MCH ARV at birth` <chr>, `MCH Apgar Score` <chr>, `MCH Weight (g)` <chr>,
#   `MCH Infant Weight  (g)` <chr>, `MCH Vit A` <chr>,
#   `MCH Infant HIV Test Result` <chr>, `MCH HIV Test Type` <chr>,
#   `MCH IPT dose` <chr>, `MCH DPT dose` <chr>, `MCH Child ARVs` <chr>, …
```
…
``` r
# get the list of organisation units that run the program "IpHINAT79UW"
target_org_units <- readepi::get_program_org_units(
  login = dhis2_login,
  program = "IpHINAT79UW",
  org_units = org_units
)

tibble::as_tibble(target_org_units)
```

``` output
# A tibble: 1,166 × 3
   org_unit_ids levels        org_unit_names              
   <chr>        <chr>         <chr>                       
 1 vRC0stJ5y9Q  Facility_name Bucksal Clinic              
 2 simyC07XwnS  Facility_name Maforay MCHP                
 3 E9oBVjyEaCe  Facility_name Gbanja Town MCHP            
 4 ZpE2POxvl9P  Facility_name Faabu CHP                   
 5 yTMrs5kClCv  Facility_name Condama MCHP                
 6 FO1Tq8vUa62  Facility_name EPI Headquarter             
 7 jGYT5U5qJP6  Facility_name Gbaiima CHC                 
 8 LaxJ6CD2DHq  Facility_name EM&BEE Maternity Home Clinic
 9 WerHl8SDtRU  Facility_name Mandema CHP                 
10 CTnuuI55SOj  Facility_name Manewa MCHP                 
# ℹ 1,156 more rows
```
…
A key parameter is the disease name. To ensure correct syntax, you can retrieve the list of available disease names using the `sormas_get_diseases()` function.


``` r
# get the list of all disease names
disease_names <- readepi::sormas_get_diseases(
  login = sormas_login
)

tibble::as_tibble(disease_names)
```

``` output
# A tibble: 67 × 2
   disease            active
   <chr>              <chr> 
 1 AFP                TRUE  
 2 CHOLERA            TRUE  
 3 CONGENITAL_RUBELLA TRUE  
 4 DENGUE             TRUE  
 5 EVD                TRUE  
 6 GUINEA_WORM        TRUE  
 7 LASSA              TRUE  
 8 MEASLES            TRUE  
 9 MONKEYPOX          TRUE  
10 NEW_INFLUENZA      TRUE  
# ℹ 57 more rows
```
…
# List the names of all disease
demo_diseases <- readepi::sormas_get_diseases(login = sormas_demo)
tibble::as_tibble(demo_diseases)
```

``` output
# A tibble: 67 × 2
   disease            active
   <chr>              <chr> 
 1 AFP                TRUE  
 2 CHOLERA            TRUE  
 3 CONGENITAL_RUBELLA TRUE  
 4 DENGUE             TRUE  
 5 EVD                TRUE  
 6 GUINEA_WORM        TRUE  
 7 LASSA              TRUE  
 8 MEASLES            TRUE  
 9 MONKEYPOX          TRUE  
10 NEW_INFLUENZA      TRUE  
# ℹ 57 more rows
```
…
