Read and clean case data, and make linelist for outbreak analytics with R: Read case data
…
# Close the database connection
DBI::dbDisconnect(conn = db_con)

# View the result
result %>%
  dplyr::as_tibble() # for a simple data frame output

OUTPUT

# A tibble: 120 × 2
    date confirm
   <int>   <int>
 1 16208       1
 2 16210       2
 3 16211       4
 4 16212       6
 5 16213       1
 6 16214       2
 7 16216      10
 8 16217       8
 9 16218       2
10 16219      12
# ℹ 110 more rows
…
