…
Import the dataset following the guidelines outlined in the [Read case data](../episodes/read-cases.Rmd) episode. This involves loading the dataset into the working environment and view its structure and content.


``` r
# Read data
# e.g.: if path to file is data/simulated_ebola_2.csv then:
cleaned_data <- rio::import(
  here::here("data", "cleaned_data.csv")
) %>%
  dplyr::as_tibble() # for a simple data frame output
```


``` output
# A tibble: 15,000 × 9
      v1 case_id   age gender status    date_onset date_sample
   <int>   <int> <dbl> <chr>  <chr>     <IDate>    <IDate>    
 1     1   14905    90 male   confirmed 2015-03-15 2015-04-06 
 2     2   13043    25 female <NA>      2013-09-11 2014-01-03 
 3     3   14364    54 female <NA>      2014-02-09 2015-03-03 
 4     4   14675    90 <NA>   <NA>      2014-10-19 2014-12-31 
 5     5   12648    74 female <NA>      2014-06-08 2016-10-10 
 6     6   14274    76 female <NA>      2015-04-05 2016-01-23 
 7     7   14132    16 male   confirmed NA         2015-10-05 
 8     8   14715    44 female confirmed NA         2016-04-24 
 9     9   13435    26 male   <NA>      2014-07-09 2014-09-20 
10    10   14816    30 female <NA>      2015-06-29 2015-02-06 
# ℹ 14,990 more rows
# ℹ 2 more variables: years_since_collection <int>, remainder_months <int>
```
…
# Display the resulting linelist object
linelist_data
```

``` output

// linelist object
# A tibble: 15,000 × 9
      v1 case_id   age gender status    date_onset date_sample
   <int>   <int> <dbl> <chr>  <chr>     <IDate>    <IDate>    
 1     1   14905    90 male   confirmed 2015-03-15 2015-04-06 
 2     2   13043    25 female <NA>      2013-09-11 2014-01-03 
 3     3   14364    54 female <NA>      2014-02-09 2015-03-03 
 4     4   14675    90 <NA>   <NA>      2014-10-19 2014-12-31 
 5     5   12648    74 female <NA>      2014-06-08 2016-10-10 
 6     6   14274    76 female <NA>      2015-04-05 2016-01-23 
 7     7   14132    16 male   confirmed NA         2015-10-05 
 8     8   14715    44 female confirmed NA         2016-04-24 
 9     9   13435    26 male   <NA>      2014-07-09 2014-09-20 
10    10   14816    30 female <NA>      2015-06-29 2015-02-06 
# ℹ 14,990 more rows
# ℹ 2 more variables: years_since_collection <int>, remainder_months <int>
…
::::::::::::::::::::::::

::::::::::::::::::::::::::::::::::::: 

A `linelist` object resembles a data frame but offers richer features
and functionalities. Packages that are linelist - aware can leverage these
features. For example, you can extract a data frame of only the tagged columns
using the `linelist::tags_df()` function, as shown below:

``` r
linelist::tags_df(linelist_data)
```

``` output
# A tibble: 15,000 × 3
      id date_onset gender
   <int> <IDate>    <chr> 
 1 14905 2015-03-15 male  
 2 13043 2013-09-11 female
 3 14364 2014-02-09 female
 4 14675 2014-10-19 <NA>  
 5 12648 2014-06-08 female
 6 14274 2015-04-05 female
 7 14132 NA         male  
 8 14715 NA         female
 9 13435 2014-07-09 male  
10 14816 2015-06-29 female
# ℹ 14,990 more rows
```
…
