Read and clean case data, and make linelist for outbreak analytics with R: Validate case data
…
R

# Read data
# e.g.: if path to file is data/simulated_ebola_2.csv then:
cleaned_data <- rio::import(
  here::here("data", "cleaned_data.csv")
) %>%
  dplyr::as_tibble() # for a simple data frame output

OUTPUT

# A tibble: 15,000 × 10
      v1 case_id   age gender status    date_onset date_sample row_id
   <int>   <int> <dbl> <chr>  <chr>     <IDate>    <IDate>      <int>
 1     1   14905    90 male   confirmed 2015-03-15 2015-06-04       1
 2     2   13043    25 female <NA>      2013-09-11 2014-03-01       2
 3     3   14364    54 female <NA>      2014-09-02 2015-03-03       3
 4     4   14675    90 <NA>   <NA>      2014-10-19 2031-12-14       4
 5     5   12648    74 female <NA>      2014-08-06 2016-10-10       5
 6     6   14274    76 female <NA>      2015-04-05 2016-01-23       7
 7     7   14132    16 male   confirmed NA         2015-05-10       8
 8     8   14715    44 female confirmed NA         2016-04-24       9
 9     9   13435    26 male   <NA>      2014-09-07 2020-09-14      10
10    10   14816    30 female <NA>      2015-06-29 2015-06-02      11
# ℹ 14,990 more rows
# ℹ 2 more variables: years_since_collection <int>, remainder_months <int>
…
# Create a linelist object from cleaned data
linelist_data <- linelist::make_linelist(
  x = cleaned_data,         # Input data
  id = "case_id",            # Column for unique case identifiers
  date_onset = "date_onset", # Column for date of symptom onset
  gender = "gender"          # Column for gender
)

# Display the resulting linelist object
linelist_data

OUTPUT

// linelist object
# A tibble: 15,000 × 10
      v1 case_id   age gender status    date_onset date_sample row_id
   <int>   <int> <dbl> <chr>  <chr>     <IDate>    <IDate>      <int>
 1     1   14905    90 male   confirmed 2015-03-15 2015-06-04       1
 2     2   13043    25 female <NA>      2013-09-11 2014-03-01       2
 3     3   14364    54 female <NA>      2014-09-02 2015-03-03       3
 4     4   14675    90 <NA>   <NA>      2014-10-19 2031-12-14       4
 5     5   12648    74 female <NA>      2014-08-06 2016-10-10       5
 6     6   14274    76 female <NA>      2015-04-05 2016-01-23       7
 7     7   14132    16 male   confirmed NA         2015-05-10       8
 8     8   14715    44 female confirmed NA         2016-04-24       9
 9     9   13435    26 male   <NA>      2014-09-07 2020-09-14      10
10    10   14816    30 female <NA>      2015-06-29 2015-06-02      11
# ℹ 14,990 more rows
# ℹ 2 more variables: years_since_collection <int>, remainder_months <int>
…
Lost tags will now issue a warning.

A linelist object resembles a data frame but offers
richer features and functionalities. Packages that are linelist-aware
can leverage these features. For example, you can extract a data frame
of only the tagged columns using the linelist::tags_df()
function, as shown below:

R

linelist::tags_df(linelist_data)

OUTPUT

# A tibble: 15,000 × 3
      id date_onset gender
   <int> <IDate>    <chr>
 1 14905 2015-03-15 male
 2 13043 2013-09-11 female
 3 14364 2014-09-02 female
 4 14675 2014-10-19 <NA>
 5 12648 2014-08-06 female
 6 14274 2015-04-05 female
 7 14132 NA         male
 8 14715 NA         female
 9 13435 2014-09-07 male
10 14816 2015-06-29 female
# ℹ 14,990 more rows
…
