Read and clean case data, and make linelist for outbreak analytics with R: All in One View
…
R

# read data
# e.g., if the path to our file is "data/raw-data/ebola_cases_2.csv" then:
ebola_confirmed <- rio::import(
  here::here("data", "raw-data", "ebola_cases_2.csv")
) %>%
  dplyr::as_tibble() # for a simple data frame output

# preview data
ebola_confirmed

OUTPUT

# A tibble: 120 × 4
    year month   day confirm
   <int> <int> <int>   <int>
 1  2014     5    18       1
 2  2014     5    20       2
 3  2014     5    21       4
 4  2014     5    22       6
 5  2014     5    23       1
 6  2014     5    24       2
 7  2014     5    26      10
 8  2014     5    27       8
 9  2014     5    28       2
10  2014     5    29      12
# ℹ 110 more rows
…
R

dplyr::left_join(author, family_author, keep = TRUE) %>%
  dplyr::collect()

OUTPUT

Joining with `by = join_by(author_id)`

OUTPUT

# A tibble: 5,029 × 4
   author_id.x name         author_id.y rfam_acc
         <int> <chr>              <int> <chr>
 1           1 Ames T                 1 RF01831
 2           2 Argasinska J           2 RF02554
 3           2 Argasinska J           2 RF02555
 4           2 Argasinska J           2 RF02722
 5           2 Argasinska J           2 RF02720
 6           2 Argasinska J           2 RF02719
 7           2 Argasinska J           2 RF02721
 8           2 Argasinska J           2 RF02670
 9           2 Argasinska J           2 RF02718
10           2 Argasinska J           2 RF02668
# ℹ 5,019 more rows
…
R

# get the list of all disease names
disease_names <- readepi::sormas_get_diseases(
  login = sormas_login
)

tibble::as_tibble(disease_names)

OUTPUT

# A tibble: 67 × 2
   disease            active
   <chr>              <chr>
 1 AFP                TRUE
 2 CHOLERA            TRUE
 3 CONGENITAL_RUBELLA TRUE
 4 DENGUE             TRUE
 5 EVD                TRUE
 6 GUINEA_WORM        TRUE
 7 LASSA              TRUE
 8 MEASLES            TRUE
 9 MONKEYPOX          TRUE
10 NEW_INFLUENZA      TRUE
# ℹ 57 more rows
…
# establish the connection to the system
sormas_demo <- readepi::login(
  type = "sormas",
  from = "https://demo.sormas.org/sormas-rest",
  user_name = "CaseSup",
  password = "SJgFKffPDmr7"
)

# List the names of all disease
demo_diseases <- readepi::sormas_get_diseases(login = sormas_demo)
tibble::as_tibble(demo_diseases)

OUTPUT

# A tibble: 67 × 2
   disease            active
   <chr>              <chr>
 1 AFP                TRUE
 2 CHOLERA            TRUE
 3 CONGENITAL_RUBELLA TRUE
 4 DENGUE             TRUE
 5 EVD                TRUE
 6 GUINEA_WORM        TRUE
 7 LASSA              TRUE
 8 MEASLES            TRUE
 9 MONKEYPOX          TRUE
10 NEW_INFLUENZA      TRUE
# ℹ 57 more rows
…
# Read data
# e.g., if path to file is data/simulated_ebola_2.csv then:
raw_ebola_data <- rio::import(
  here::here("data", "simulated_ebola_2.csv")
) %>%
  dplyr::as_tibble() # for a simple data frame output

R

# Print data frame
raw_ebola_data

OUTPUT

# A tibble: 15,003 × 9
      V1 `case id` age     gender status `date onset` `date sample` lab   region
   <int>     <int> <chr>   <chr>  <chr>  <chr>        <chr>         <lgl> <chr>
 1     1     14905 90      1      "conf… 03/15/2015   06/04/2015    NA    valdr…
 2     2     13043 twenty… 2      ""     Sep /11/13   03/01/2014    NA    valdr…
 3     3     14364 54      f       <NA>  09/02/2014   03/03/2015    NA    valdr…
 4     4     14675 ninety  <NA>   ""     10/19/2014   31/ 12 /14    NA    valdr…
 5     5     12648 74      F      ""     08/06/2014   10/10/2016    NA    valdr…
 6     5     12648 74      F      ""     08/06/2014   10/10/2016    NA    valdr…
 7     6     14274 sevent… female ""     Apr /05/15   01/23/2016    NA    valdr…
 8     7     14132 sixteen male   "conf… Dec /29/Y    05/10/2015    NA    valdr…
 9     8     14715 44      f      "conf… Apr /06/Y    04/24/2016    NA    valdr…
10     9     13435 26      1      ""     09/07/2014   20/ 09 /14    NA    valdr…
# ℹ 14,993 more rows
…
R

sim_ebola_data <- cleanepi::replace_missing_values(
  data = sim_ebola_data,
  na_strings = ""
)

sim_ebola_data

OUTPUT

# A tibble: 15,000 × 7
      v1 case_id age         gender status    date_onset date_sample
   <int>   <int> <chr>       <chr>  <chr>     <chr>      <chr>
 1     1   14905 90          1      confirmed 03/15/2015 06/04/2015
 2     2   13043 twenty-five 2      <NA>      sep /11/13 03/01/2014
 3     3   14364 54          f      <NA>      09/02/2014 03/03/2015
 4     4   14675 ninety      <NA>   <NA>      10/19/2014 31/ 12 /14
 5     5   12648 74          F      <NA>      08/06/2014 10/10/2016
 6     6   14274 seventy-six female <NA>      apr /05/15 01/23/2016
 7     7   14132 sixteen     male   confirmed dec /29/y  05/10/2015
 8     8   14715 44          f      confirmed apr /06/y  04/24/2016
 9     9   13435 26          1      <NA>      09/07/2014 20/ 09 /14
10    10   14816 thirty      f      <NA>      06/29/2015 06/02/2015
# ℹ 14,990 more rows
…
OUTPUT

! Detected 1142 values that comply with multiple formats and no values that are
  outside of the specified time frame.
ℹ Enter `print_report(data = dat, "date_standardization")` to access them,
  where "dat" is the object used to store the output from this operation.

R

sim_ebola_data

OUTPUT

# A tibble: 15,000 × 7
      v1 case_id age         gender status    date_onset date_sample
   <int>   <int> <chr>       <chr>  <chr>     <date>     <date>
 1     1   14905 90          1      confirmed 2015-03-15 2015-04-06
 2     2   13043 twenty-five 2      <NA>      2013-09-11 2014-01-03
 3     3   14364 54          f      <NA>      2014-02-09 2015-03-03
 4     4   14675 ninety      <NA>   <NA>      2014-10-19 2014-12-31
 5     5   12648 74          F      <NA>      2014-06-08 2016-10-10
 6     6   14274 seventy-six female <NA>      2015-04-05 2016-01-23
 7     7   14132 sixteen     male   confirmed NA         2015-10-05
 8     8   14715 44          f      confirmed NA         2016-04-24
 9     9   13435 26          1      <NA>      2014-07-09 2014-09-20
10    10   14816 thirty      f      <NA>      2015-06-29 2015-02-06
# ℹ 14,990 more rows
…
# 2. Drop observations with missings on dates tested
dat_without_missings_dates <- sim_ebola_100 %>%
  dplyr::filter(!(is.na(date_onset) | is.na(date_sample)))

# 3. Drop inconsistent observations
dat_without_missings_dates %>%
  dplyr::slice(-obs_incorrect)

OUTPUT

# A tibble: 39 × 7
      v1 case_id age         gender status    date_onset date_sample
   <int>   <int> <chr>       <chr>  <chr>     <date>     <date>
 1     1   14905 90          1      confirmed 2015-03-15 2015-04-06
 2     2   13043 twenty-five 2      <NA>      2013-09-11 2014-01-03
 3     3   14364 54          f      <NA>      2014-02-09 2015-03-03
 4     4   14675 ninety      <NA>   <NA>      2014-10-19 2014-12-31
 5     5   12648 74          F      <NA>      2014-06-08 2016-10-10
 6     6   14274 seventy-six female <NA>      2015-04-05 2016-01-23
 7     9   13435 26          1      <NA>      2014-07-09 2014-09-20
 8    11   13993 forty-nine  2      suspected 2015-01-21 2016-06-18
 9    12   13698 four        2      suspected 2014-11-27 2015-05-28
10    13   13976 sixty-seven M      suspected 2014-10-20 2016-06-26
# ℹ 29 more rows
…
sim_ebola_data <- cleanepi::timespan(
  data = sim_ebola_data,
  target_column = "date_onset",
  end_date = "date_sample",
  span_unit = "days",
  span_column_name = "reporting_delay"
)

sim_ebola_data %>%
  dplyr::select(case_id, date_sample, reporting_delay)

OUTPUT

# A tibble: 15,000 × 3
   case_id date_sample reporting_delay
     <int> <date>                <dbl>
 1   14905 2015-04-06               22
 2   13043 2014-01-03              114
 3   14364 2015-03-03              387
 4   14675 2014-12-31               73
 5   12648 2016-10-10              855
 6   14274 2016-01-23              293
 7   14132 2015-10-05               NA
 8   14715 2016-04-24               NA
 9   13435 2014-09-20               73
10   14816 2015-02-06             -143
# ℹ 14,990 more rows
…
R

sim_ebola_data <- cleanepi::clean_using_dictionary(
  data = sim_ebola_data,
  dictionary = test_dict
)

sim_ebola_data

OUTPUT

# A tibble: 15,000 × 8
      v1 case_id age        gender status date_onset date_sample reporting_delay
   <int>   <int> <chr>      <chr>  <chr>  <date>     <date>                <dbl>
 1     1   14905 90         male   confi… 2015-03-15 2015-04-06               22
 2     2   13043 twenty-fi… female <NA>   2013-09-11 2014-01-03              114
 3     3   14364 54         female <NA>   2014-02-09 2015-03-03              387
 4     4   14675 ninety     <NA>   <NA>   2014-10-19 2014-12-31               73
 5     5   12648 74         female <NA>   2014-06-08 2016-10-10              855
 6     6   14274 seventy-s… female <NA>   2015-04-05 2016-01-23              293
 7     7   14132 sixteen    male   confi… NA         2015-10-05               NA
 8     8   14715 44         female confi… NA         2016-04-24               NA
 9     9   13435 26         male   <NA>   2014-07-09 2014-09-20               73
10    10   14816 thirty     female <NA>   2015-06-29 2015-02-06             -143
# ℹ 14,990 more rows
…
R

sim_ebola_data <- cleanepi::convert_to_numeric(
  data = sim_ebola_data,
  target_columns = "age"
)

sim_ebola_data

OUTPUT

# A tibble: 15,000 × 8
      v1 case_id   age gender status    date_onset date_sample reporting_delay
   <int>   <int> <dbl> <chr>  <chr>     <date>     <date>                <dbl>
 1     1   14905    90 male   confirmed 2015-03-15 2015-04-06               22
 2     2   13043    25 female <NA>      2013-09-11 2014-01-03              114
 3     3   14364    54 female <NA>      2014-02-09 2015-03-03              387
 4     4   14675    90 <NA>   <NA>      2014-10-19 2014-12-31               73
 5     5   12648    74 female <NA>      2014-06-08 2016-10-10              855
 6     6   14274    76 female <NA>      2015-04-05 2016-01-23              293
 7     7   14132    16 male   confirmed NA         2015-10-05               NA
 8     8   14715    44 female confirmed NA         2016-04-24               NA
 9     9   13435    26 male   <NA>      2014-07-09 2014-09-20               73
10    10   14816    30 female <NA>      2015-06-29 2015-02-06             -143
# ℹ 14,990 more rows
…
R

# Read data
# e.g., if path to file is data/cleaned_data.csv then:
cleaned_data <- rio::import(
  here::here("data", "cleaned_data.csv")
) %>%
  dplyr::as_tibble() # for a simple data frame output

OUTPUT

# A tibble: 15,000 × 8
      v1 case_id   age gender status    date_onset date_sample reporting_delay
   <int>   <int> <dbl> <chr>  <chr>     <IDate>    <IDate>               <int>
 1     1   14905    90 male   confirmed 2015-03-15 2015-04-06               22
 2     2   13043    25 female <NA>      2013-09-11 2014-01-03              114
 3     3   14364    54 female <NA>      2014-02-09 2015-03-03              387
 4     4   14675    90 <NA>   <NA>      2014-10-19 2014-12-31               73
 5     5   12648    74 female <NA>      2014-06-08 2016-10-10              855
 6     6   14274    76 female <NA>      2015-04-05 2016-01-23              293
 7     7   14132    16 male   confirmed NA         2015-10-05               NA
 8     8   14715    44 female confirmed NA         2016-04-24               NA
 9     9   13435    26 male   <NA>      2014-07-09 2014-09-20               73
10    10   14816    30 female <NA>      2015-06-29 2015-02-06             -143
# ℹ 14,990 more rows
…
# Create a linelist object from cleaned data
linelist_data <- linelist::make_linelist(
  x = cleaned_data, # Input data
  id = "case_id", # Column for unique case identifiers
  date_onset = "date_onset", # Column for date of symptom onset
  gender = "gender" # Column for gender
)

# Display the resulting linelist object
linelist_data

OUTPUT

// linelist object
# A tibble: 15,000 × 8
      v1 case_id   age gender status    date_onset date_sample reporting_delay
   <int>   <int> <dbl> <chr>  <chr>     <IDate>    <IDate>               <int>
 1     1   14905    90 male   confirmed 2015-03-15 2015-04-06               22
 2     2   13043    25 female <NA>      2013-09-11 2014-01-03              114
 3     3   14364    54 female <NA>      2014-02-09 2015-03-03              387
 4     4   14675    90 <NA>   <NA>      2014-10-19 2014-12-31               73
 5     5   12648    74 female <NA>      2014-06-08 2016-10-10              855
 6     6   14274    76 female <NA>      2015-04-05 2016-01-23              293
 7     7   14132    16 male   confirmed NA         2015-10-05               NA
 8     8   14715    44 female confirmed NA         2016-04-24               NA
 9     9   13435    26 male   <NA>      2014-07-09 2014-09-20               73
10    10   14816    30 female <NA>      2015-06-29 2015-02-06             -143
# ℹ 14,990 more rows
…
Lost tags will now issue a warning.

A linelist object resembles a data frame but offers
richer features and functionalities. Packages that are
linelist-aware can leverage these features. For example,
you can extract a data frame of only the tagged columns using the
linelist::tags_df() function, as shown below:

R

linelist::tags_df(linelist_data)

OUTPUT

# A tibble: 15,000 × 3
      id date_onset gender
   <int> <IDate>    <chr>
 1 14905 2015-03-15 male
 2 13043 2013-09-11 female
 3 14364 2014-02-09 female
 4 14675 2014-10-19 <NA>
 5 12648 2014-06-08 female
 6 14274 2015-04-05 female
 7 14132 NA         male
 8 14715 NA         female
 9 13435 2014-07-09 male
10 14816 2015-06-29 female
# ℹ 14,990 more rows
…
OUTPUT

'.' is a valid linelist object

OUTPUT

# A tibble: 15,000 × 3
      id date_onset gender
   <int> <IDate>    <chr>
 1 14905 2015-03-15 male
 2 13043 2013-09-11 female
 3 14364 2014-02-09 female
 4 14675 2014-10-19 <NA>
 5 12648 2014-06-08 female
 6 14274 2015-04-05 female
 7 14132 NA         male
 8 14715 NA         female
 9 13435 2014-07-09 male
10 14816 2015-06-29 female
# ℹ 14,990 more rows
…
R

# Set seed for reproducibility
set.seed(1)

# Simulate linelist data for an outbreak with size between 1000 and 1500
sim_data <- simulist::sim_linelist(outbreak_size = c(1000, 1500)) %>%
  dplyr::as_tibble() # for a simple data frame output

# Display the simulated dataset
sim_data

OUTPUT

# A tibble: 1,546 × 13
      id case_name         case_type sex     age date_onset date_reporting
   <int> <chr>             <chr>     <chr> <int> <date>     <date>
 1     1 Travis Kurek      confirmed m        37 2023-01-01 2023-01-01
 2     3 Courtney Mccoy    probable  f        12 2023-01-11 2023-01-11
 3     6 Andrea Alarid     confirmed f        53 2023-01-18 2023-01-18
 4     8 Salwa el-Sharifi  suspected f        36 2023-01-23 2023-01-23
 5    11 Azza al-Noorani   suspected f        77 2023-01-30 2023-01-30
 6    14 Olivya Pinto      probable  f        37 2023-01-24 2023-01-24
 7    15 Acineth Briones   suspected f        67 2023-01-31 2023-01-31
 8    16 Mahuroos el-Javed confirmed m        80 2023-01-30 2023-01-30
 9    20 Awad el-Idris     probable  m        70 2023-01-27 2023-01-27
10    21 Matthew Friend    confirmed m        87 2023-02-09 2023-02-09
# ℹ 1,536 more rows
# ℹ 6 more variables: date_admission <date>, outcome <chr>,
#   date_outcome <date>, date_first_contact <date>, date_last_contact <date>,
#   ct_value <dbl>
…
