Read and clean case data, and make linelist for outbreak analytics with R: Clean and validate
…
# Read data
# e.g.: if path to file is data/simulated_ebola_2.csv then:
raw_ebola_data <- rio::import(
  here::here("data", "simulated_ebola_2.csv")
) %>%
  dplyr::as_tibble() # for a simple data frame output

R

# Return first five rows
raw_ebola_data

OUTPUT

# A tibble: 15,000 × 7
      V1 `case id` age         gender status      `date onset` `date sample`
   <int>     <int> <chr>       <chr>  <chr>       <chr>        <chr>
 1     1     14905 90          1      "confirmed" 03/15/2015   06/04/2015
 2     2     13043 twenty-five 2      ""          Sep /11/Y    03/01/2014
 3     3     14364 54          f       <NA>       09/02/2014   03/03/2015
 4     4     14675 ninety      <NA>   ""          10/19/2014   31/ 12 /14
 5     5     12648 74          F      ""          08/06/2014   10/10/2016
 6     6     14274 seventy-six female ""          Apr /05/Y    01/23/2016
 7     7     14132 sixteen     male   "confirmed" Dec /29/Y    05/10/2015
 8     8     14715 44          f      "confirmed" Apr /06/Y    04/24/2016
 9     9     13435 26          1      ""          09/07/2014   20/ 09 /14
10    10     14816 thirty      f      ""          06/29/2015   06/02/2015
# ℹ 14,990 more rows
…
R

sim_ebola_data <- cleanepi::standardize_dates(
  sim_ebola_data,
  target_columns = c(
    "date_onset",
    "date_sample"
  )
)

sim_ebola_data

OUTPUT

# A tibble: 15,000 × 7
     v_1 case_id age         gender status    date_onset date_sample
   <int> <chr>   <chr>       <chr>  <chr>     <date>     <date>
 1     1 14905   90          1      confirmed 2015-03-15 2015-04-06
 2     2 13043   twenty-five 2      <NA>      NA         2014-01-03
 3     3 14364   54          f      <NA>      2014-02-09 2015-03-03
 4     4 14675   ninety      <NA>   <NA>      2014-10-19 2014-12-31
 5     5 12648   74          F      <NA>      2014-06-08 2016-10-10
 6     6 14274   seventy-six female <NA>      NA         2016-01-23
 7     7 14132   sixteen     male   confirmed NA         2015-10-05
 8     8 14715   44          f      confirmed NA         2016-04-24
 9     9 13435   26          1      <NA>      2014-07-09 2014-09-20
10    10 14816   thirty      f      <NA>      2015-06-29 2015-02-06
# ℹ 14,990 more rows
…
R

sim_ebola_data <- cleanepi::convert_to_numeric(sim_ebola_data,
  target_columns = "age"
)

sim_ebola_data

OUTPUT

# A tibble: 15,000 × 7
     v_1 case_id   age gender status    date_onset date_sample
   <int> <chr>   <dbl> <chr>  <chr>     <date>     <date>
 1     1 14905      90 1      confirmed 2015-03-15 2015-04-06
 2     2 13043      25 2      <NA>      NA         2014-01-03
 3     3 14364      54 f      <NA>      2014-02-09 2015-03-03
 4     4 14675      90 <NA>   <NA>      2014-10-19 2014-12-31
 5     5 12648      74 F      <NA>      2014-06-08 2016-10-10
 6     6 14274      76 female <NA>      NA         2016-01-23
 7     7 14132      16 male   confirmed NA         2015-10-05
 8     8 14715      44 f      confirmed NA         2016-04-24
 9     9 13435      26 1      <NA>      2014-07-09 2014-09-20
10    10 14816      30 f      <NA>      2015-06-29 2015-02-06
# ℹ 14,990 more rows
…
R

sim_ebola_data <- cleanepi::clean_using_dictionary(
  sim_ebola_data,
  dictionary = test_dict
)

sim_ebola_data

OUTPUT

# A tibble: 15,000 × 7
     v_1 case_id   age gender status    date_onset date_sample
   <int> <chr>   <dbl> <chr>  <chr>     <date>     <date>
 1     1 14905      90 male   confirmed 2015-03-15 2015-04-06
 2     2 13043      25 female <NA>      NA         2014-01-03
 3     3 14364      54 female <NA>      2014-02-09 2015-03-03
 4     4 14675      90 <NA>   <NA>      2014-10-19 2014-12-31
 5     5 12648      74 female <NA>      2014-06-08 2016-10-10
 6     6 14274      76 female <NA>      NA         2016-01-23
 7     7 14132      16 male   confirmed NA         2015-10-05
 8     8 14715      44 female confirmed NA         2016-04-24
 9     9 13435      26 male   <NA>      2014-07-09 2014-09-20
10    10 14816      30 female <NA>      2015-06-29 2015-02-06
# ℹ 14,990 more rows
…
sim_ebola_data <- cleanepi::timespan(
  sim_ebola_data,
  target_column = "date_sample",
  end_date = Sys.Date(),
  span_unit = "years",
  span_column_name = "time_since_sampling_date",
  span_remainder_unit = "months"
)

sim_ebola_data

OUTPUT

# A tibble: 15,000 × 9
     v_1 case_id   age gender status    date_onset date_sample
   <int> <chr>   <dbl> <chr>  <chr>     <date>     <date>
 1     1 14905      90 male   confirmed 2015-03-15 2015-04-06
 2     2 13043      25 female <NA>      NA         2014-01-03
 3     3 14364      54 female <NA>      2014-02-09 2015-03-03
 4     4 14675      90 <NA>   <NA>      2014-10-19 2014-12-31
 5     5 12648      74 female <NA>      2014-06-08 2016-10-10
 6     6 14274      76 female <NA>      NA         2016-01-23
 7     7 14132      16 male   confirmed NA         2015-10-05
 8     8 14715      44 female confirmed NA         2016-04-24
 9     9 13435      26 male   <NA>      2014-07-09 2014-09-20
10    10 14816      30 female <NA>      2015-06-29 2015-02-06
# ℹ 14,990 more rows
# ℹ 2 more variables: time_since_sampling_date <dbl>, remainder_months <dbl>
…
library(linelist)

linelist_data <- linelist::make_linelist(
  x = cleaned_data,
  id = "case_id",
  date_onset = "date_onset",
  gender = "gender"
)

linelist_data

OUTPUT

// linelist object
# A tibble: 15,000 × 7
     v_1 case_id   age gender status    date_onset date_sample
   <int> <chr>   <dbl> <chr>  <chr>     <date>     <date>
 1     1 14905      90 male   confirmed 2015-03-15 2015-04-06
 2     2 13043      25 female <NA>      NA         2014-01-03
 3     3 14364      54 female <NA>      2014-02-09 2015-03-03
 4     4 14675      90 <NA>   <NA>      2014-10-19 2014-12-31
 5     5 12648      74 female <NA>      2014-06-08 2016-10-10
 6     6 14274      76 female <NA>      NA         2016-01-23
 7     7 14132      16 male   confirmed NA         2015-10-05
 8     8 14715      44 female confirmed NA         2016-04-24
 9     9 13435      26 male   <NA>      2014-07-09 2014-09-20
10    10 14816      30 female <NA>      2015-06-29 2015-02-06
# ℹ 14,990 more rows
…
Lost tags will now issue a warning.

A linelist object resembles a data frame but offers
richer features and functionalities. Packages that are linelist-aware
can leverage these features. For example, you can extract a data frame
of only the tagged columns using the linelist::tags_df()
function, as shown below:

R

linelist::tags_df(linelist_data)

OUTPUT

# A tibble: 15,000 × 3
   id    date_onset gender
   <chr> <date>     <chr>
 1 14905 2015-03-15 male
 2 13043 NA         female
 3 14364 2014-02-09 female
 4 14675 2014-10-19 <NA>
 5 12648 2014-06-08 female
 6 14274 NA         female
 7 14132 NA         male
 8 14715 NA         female
 9 13435 2014-07-09 male
10 14816 2015-06-29 female
# ℹ 14,990 more rows
…
