Read and clean case data, and make linelist for outbreak analytics with R: Read case data
…
R

# read data
# e.g., if the path to our file is "data/raw-data/ebola_cases_2.csv" then:
ebola_confirmed <- rio::import(
  here::here("data", "raw-data", "ebola_cases_2.csv")
) %>%
  dplyr::as_tibble() # for a simple data frame output

# preview data
ebola_confirmed

OUTPUT

# A tibble: 120 × 4
    year month   day confirm
   <int> <int> <int>   <int>
 1  2014     5    18       1
 2  2014     5    20       2
 3  2014     5    21       4
 4  2014     5    22       6
 5  2014     5    23       1
 6  2014     5    24       2
 7  2014     5    26      10
 8  2014     5    27       8
 9  2014     5    28       2
10  2014     5    29      12
# ℹ 110 more rows
…
R

dplyr::left_join(author, family_author, keep = TRUE) %>%
  dplyr::collect()

OUTPUT

Joining with `by = join_by(author_id)`

OUTPUT

# A tibble: 5,029 × 4
   author_id.x name         author_id.y rfam_acc
         <int> <chr>              <int> <chr>
 1           1 Ames T                 1 RF01831
 2           2 Argasinska J           2 RF02554
 3           2 Argasinska J           2 RF02555
 4           2 Argasinska J           2 RF02722
 5           2 Argasinska J           2 RF02720
 6           2 Argasinska J           2 RF02719
 7           2 Argasinska J           2 RF02721
 8           2 Argasinska J           2 RF02670
 9           2 Argasinska J           2 RF02718
10           2 Argasinska J           2 RF02668
# ℹ 5,019 more rows
…
# establish the connection to the system
demo_login <- readepi::login(
  type = "dhis2",
  from = "https://play.im.dhis2.org/stable-2-42-4",
  user_name = "admin",
  password = "district"
)

# get the names and IDs of the programs
demo_programs <- readepi::get_programs(login = demo_login)
tibble::as_tibble(demo_programs)

OUTPUT

# A tibble: 24 × 3
   displayName                                         id          type
   <chr>                                               <chr>       <chr>
 1 Antenatal care visit                                lxAQ7Zs9VYR aggregate
 2 Child Program                                       IpHINAT79UW tracker
 3 Community Diarrhoea Screening                       RuynHNeEXHj aggregate
 4 Contraceptives Voucher Program                      kla3mAPgvCH aggregate
 5 Days between incident date testing                  CtFhJTxCD8Q tracker
 6 Information Campaign                                q04UBOqq3rp aggregate
 7 Inpatient morbidity and mortality                   eBAyeGv0exc aggregate
 8 Malaria case diagnosis, treatment and investigation qDkgAbB5Jlk tracker
 9 Malaria case registration                           VBqh0ynB2wv aggregate
10 Malaria focus investigation                         M3xtLkYBlKI tracker
# ℹ 14 more rows

R

# get the names and IDs of the organisation units
demo_units <- readepi::get_organisation_units(login = demo_login)
tibble::as_tibble(demo_units)

OUTPUT

# A tibble: 1,167 × 8
   National_name National_id District_name District_id Chiefdom_name Chiefdom_id
   <chr>         <chr>       <chr>         <chr>       <chr>         <chr>
 1 Sierra Leone  ImspTQPwCqd Western Area  at6UHUQatSo Rural Wester… qtr8GGlm4gg
 2 Sierra Leone  ImspTQPwCqd Western Area  at6UHUQatSo Rural Wester… qtr8GGlm4gg
 3 Sierra Leone  ImspTQPwCqd Bo            O6uvpzGd5pu Kakua         U6Kr7Gtpidn
 4 Sierra Leone  ImspTQPwCqd Kambia        PMa2VCrupOd Magbema       QywkxFudXrC
 5 Sierra Leone  ImspTQPwCqd Tonkolili     eIQbndfxQMb Yoni          NNE0YMCDZkO
 6 Sierra Leone  ImspTQPwCqd Port Loko     TEQlaapDQoK Kaffu Bullom  vn9KJsLyP5f
 7 Sierra Leone  ImspTQPwCqd Koinadugu     qhqAxPSTUXp Nieni         J4GiUImJZoE
 8 Sierra Leone  ImspTQPwCqd Western Area  at6UHUQatSo Freetown      C9uduqDZr9d
 9 Sierra Leone  ImspTQPwCqd Western Area  at6UHUQatSo Freetown      C9uduqDZr9d
10 Sierra Leone  ImspTQPwCqd Kono          Vth0fbpFcsO Gbense        TQkG0sX9nca
# ℹ 1,157 more rows
# ℹ 2 more variables: Facility_name <chr>, Facility_id <chr>
…
R

# get the list of all disease names
disease_names <- readepi::sormas_get_diseases(
  login = sormas_login
)

tibble::as_tibble(disease_names)

OUTPUT

# A tibble: 67 × 2
   disease            active
   <chr>              <chr>
 1 AFP                TRUE
 2 CHOLERA            TRUE
 3 CONGENITAL_RUBELLA TRUE
 4 DENGUE             TRUE
 5 EVD                TRUE
 6 GUINEA_WORM        TRUE
 7 LASSA              TRUE
 8 MEASLES            TRUE
 9 MONKEYPOX          TRUE
10 NEW_INFLUENZA      TRUE
# ℹ 57 more rows
…
# establish the connection to the system
sormas_demo <- readepi::login(
  type = "sormas",
  from = "https://demo.sormas.org/sormas-rest",
  user_name = "CaseSup",
  password = "SJgFKffPDmr7"
)

# List the names of all disease
demo_diseases <- readepi::sormas_get_diseases(login = sormas_demo)
tibble::as_tibble(demo_diseases)

OUTPUT

# A tibble: 67 × 2
   disease            active
   <chr>              <chr>
 1 AFP                TRUE
 2 CHOLERA            TRUE
 3 CONGENITAL_RUBELLA TRUE
 4 DENGUE             TRUE
 5 EVD                TRUE
 6 GUINEA_WORM        TRUE
 7 LASSA              TRUE
 8 MEASLES            TRUE
 9 MONKEYPOX          TRUE
10 NEW_INFLUENZA      TRUE
# ℹ 57 more rows
…
